Daniela’s Notes for Nicemboim, Schad, & Vasishth (2024) - 6 Ch. Exercises
…
7 Chapter 5 - Bayesian hierachical models

7.1 Exercise 5.1 A hierarchical model (normal likelihood) of cognitive load on pupil .

As in section 4.1, we focus on the effect of cognitive load on pupil , but this time we look at all the subjects of Wahn et al. (2016):

data("df_pupil_complete")
df_pupil_complete

# A tibble: 2,228 × 4
    subj trial  load p_size
   <int> <int> <int>  <dbl>
 1   701     1     2  1021.
 2   701     2     1   951.
 3   701     3     5  1064.
 4   701     4     4   913.
 5   701     5     0   603.
 6   701     6     3   826.
 7   701     7     0   464.
 8   701     8     4   758.
 9   701     9     2   733.
10   701    10     3   591.
# ℹ 2,218 more rows
…
(1a) The reporter [who the photographer sent to the editor] was hoping for a good story. (ORC)

(1b) The reporter [who sent the photographer to the editor] was hoping for a good story. (SRC)

The underlying explanation has to do with memory processes: Shorter linguistic dependencies are easier to process due to either reduced interference or decay, or both. For implemented computational models that spell this point out, see Lewis and Vasishth (2005) and Engelmann, Jäger, and Vasishth (2020).

In the Grodner and Gibson data, the dependent measure is reading time at the relative clause verb, (e.g., sent) of different sentences with either ORC or SRC. The dependent variable is in milliseconds and was measured in a self-paced reading task. Self-paced reading is a task where subjects read a sentence or a short text word-by-word or phrase-by-phrase, pressing a button to get each word or phrase displayed; the preceding word disappears every time the button is pressed. In 6.1, we provide a more detailed explanation of this experimental method.

For this experiment, we are expecting longer reading times at the relative clause verbs of ORC sentences in comparison to the relative clause verb of SRC sentences.

data("df_gg05_rc")
df_gg05_rc

# A tibble: 672 × 7
    subj  item condition    RT residRT qcorrect experiment
   <int> <int> <chr>     <int>   <dbl>    <int> <chr>     
 1     1     1 objgap      320  -21.4         0 tedrg3    
 2     1     2 subjgap     424   74.7         1 tedrg2    
 3     1     3 objgap      309  -40.3         0 tedrg3    
 4     1     4 subjgap     274  -91.2         1 tedrg2    
 5     1     5 objgap      333   -8.39        1 tedrg3    
 6     1     6 subjgap     266  -87.3         1 tedrg2    
 7     1     7 objgap      327  -42.2         1 tedrg3    
 8     1     8 subjgap     279  -90.2         1 tedrg2    
 9     1     9 objgap      342  -23.2         1 tedrg3    
10     1    10 subjgap     297  -52.3         0 tedrg2    
# ℹ 662 more rows
…
