Daniela’s Notes for Nicemboim, Schad, & Vasishth (2024) - 3 Ch. 3
…
2.118 sec elapsed

prior_pred

# A tibble: 361,000 × 3
   trialn rt_pred  iter
    <dbl>   <dbl> <dbl>
 1      1  26813.     1
 2      2  27298.     1
 3      3  28224.     1
 4      4  28051.     1
 5      5  28176.     1
 6      6  27918.     1
 7      7  28332.     1
 8      8  28241.     1
 9      9  27841.     1
10     10  27232.     1
# ℹ 360,990 more rows
…
as with the prior predictive distribution, the integration can be carried out computationally by generating samples from the posterior predictive distribution

we can use the same function normal_predictive_distribution() as created above; the only difference is that the samples come from the posterior, not from mu and sigma

N_obs <- nrow(df_spacebar)
mu_samples <- as_draws_df(fit_press)$b_Intercept
sigma_samples <- as_draws_df(fit_press)$sigma
normal_predictive_distribution(
  mu_samples = mu_samples,
  sigma_samples = sigma_samples,
  N_obs = N_obs
)

# A tibble: 1,444,000 × 3
   trialn rt_pred  iter
    <dbl>   <dbl> <dbl>
 1      1    170.     1
 2      2    171.     1
 3      3    165.     1
 4      4    165.     1
 5      5    214.     1
 6      6    206.     1
 7      7    165.     1
 8      8    149.     1
 9      9    122.     1
10     10    177.     1
# ℹ 1,443,990 more rows
…
