Ch. 5
…
even if we aren’t interested in specific cluster-level estimates, hierarchical models allow us to generalise to the underlying population (subjects, items) from which the clusters in the sampel were drawn

exchangeability is important in Bayesian stats because of a theorem called the Representation Theorem

this theorem states that if a sequence of random variables is exchangeable, then the prior distributions on the parameters in a model are a necessary consequence

priors are not merely an arbitrary addition to the frequentist modeling approach

Hierarchical model with a normal likelihood: the N400 effect

data("df_eeg")
(df_eeg <- df_eeg %>%
  mutate(c_cloze = cloze - mean(cloze)))

# A tibble: 2,863 × 7
    subj cloze  item  n400 cloze_ans     N c_cloze
   <dbl> <dbl> <dbl> <dbl>     <dbl> <dbl>   <dbl>
 1     1  0        1  7.08         0    44  -0.476
 2     1  0.03     2 -0.68         1    44  -0.446
 3     1  1        3  1.39        44    44   0.524
 4     1  0.93     4 22.8         41    44   0.454
 5     1  0        5  1.61         0    44  -0.476
 6     1  0        6  3.01         0    44  -0.476
 7     1  0.8      7  9.96        35    44   0.324
 8     1  0.03     9 -1.85         1    44  -0.446
 9     1  0.03    10  8.73         1    44  -0.446
10     1  0.87    11 10.9         38    44   0.394
# ℹ 2,853 more rows
…
